#Command: "C:\Program Files (x86)\Microsoft Visual Studio\2017\Community\VC\Tools\MSVC\14.16.27023\bin\HostX86\x86\link.exe" /ERRORREPORT:PROMPT @C:\Users\Tomeriq\AppData\Local\Temp\tmp7efa1a45e2974f83b48fcaaad44606c0.rsp
^C:\USERS\TOMERIQ\DOWNLOADS\GALLERY\DEBUG\ALBUM.OBJ|C:\USERS\TOMERIQ\DOWNLOADS\GALLERY\DEBUG\ALBUMMANAGER.OBJ|C:\USERS\TOMERIQ\DOWNLOADS\GALLERY\DEBUG\GALLERY.OBJ|C:\USERS\TOMERIQ\DOWNLOADS\GALLERY\DEBUG\MEMORYACCESS.OBJ|C:\USERS\TOMERIQ\DOWNLOADS\GALLERY\DEBUG\PICTURE.OBJ|C:\USERS\TOMERIQ\DOWNLOADS\GALLERY\DEBUG\USER.OBJ
C:\USERS\TOMERIQ\DOWNLOADS\GALLERY\DEBUG\GALLERY.PDB
