^C:\USERS\משתמש\DESKTOP\GALLERY\GALLERY\DEBUG\ALBUM.OBJ|C:\USERS\משתמש\DESKTOP\GALLERY\GALLERY\DEBUG\ALBUMMANAGER.OBJ|C:\USERS\משתמש\DESKTOP\GALLERY\GALLERY\DEBUG\CALLBACKS.OBJ|C:\USERS\משתמש\DESKTOP\GALLERY\GALLERY\DEBUG\DATABASEACCESS.OBJ|C:\USERS\משתמש\DESKTOP\GALLERY\GALLERY\DEBUG\GALLERY.OBJ|C:\USERS\משתמש\DESKTOP\GALLERY\GALLERY\DEBUG\MEMORYACCESS.OBJ|C:\USERS\משתמש\DESKTOP\GALLERY\GALLERY\DEBUG\PICTURE.OBJ|C:\USERS\משתמש\DESKTOP\GALLERY\GALLERY\DEBUG\SQLITE3.OBJ|C:\USERS\משתמש\DESKTOP\GALLERY\GALLERY\DEBUG\USER.OBJ
C:\USERS\משתמש\DESKTOP\GALLERY\GALLERY\DEBUG\GALLERY.EXE
C:\USERS\משתמש\DESKTOP\GALLERY\GALLERY\DEBUG\GALLERY.ILK
C:\USERS\משתמש\DESKTOP\GALLERY\GALLERY\DEBUG\GALLERY.PDB
